Plots for the TILT Project • tiltPlot
…
You can install the development version of tiltPlot from GitHub with:

# install.packages("pak")
pak::pak("2DegreesInvesting/tiltPlot")

Example

library(ggplot2)
library(dplyr, warn.conflicts = FALSE)
library(tiltPlot)

1. Sankey Plot with financial data

financial
#> # A tibble: 264 × 23
#>    bank_id amount_total company_name postcode benchmark ep_product
#>    <chr>          <int> <chr>           <int> <chr>     <chr>     
#>  1 bank_a          1000 tilman          12043 all       car       
#>  2 bank_a          1000 tilman          12043 all       tractor   
#>  3 bank_a          1000 tilman          12043 all       steel     
#>  4 bank_a          1000 tilman          12043 all       car       
#>  5 bank_a          1000 tilman          12043 all       tractor   
#>  6 bank_a          1000 tilman          12043 all       steel     
#>  7 bank_a          1000 tilman          12043 all       car       
#>  8 bank_a          1000 tilman          12043 all       tractor   
#>  9 bank_a          1000 tilman          12043 all       steel     
#> 10 bank_a          1000 tilman          12043 all       car       
#> # ℹ 254 more rows
#> # ℹ 17 more variables: co2_footprint_product <dbl>, tilt_sector <chr>,
#> #   tilt_subsector <chr>, isic_4digit <int>, isic_4digit_name <chr>,
#> #   amount_of_distinct_products <int>, equal_weight_finance <dbl>,
#> #   worst_case_finance <int>, best_case_finance <int>, emission_profile <chr>,
#> #   profile_ranking <dbl>, sector_profile <chr>, scenario <chr>, year <int>,
#> #   reduction_targets <dbl>, transition_risk_score <dbl>, …
…
2. Emission profile plots with financial data

financial
#> # A tibble: 264 × 23
#>    bank_id amount_total company_name postcode benchmark ep_product
#>    <chr>          <int> <chr>           <int> <chr>     <chr>     
#>  1 bank_a          1000 tilman          12043 all       car       
#>  2 bank_a          1000 tilman          12043 all       tractor   
#>  3 bank_a          1000 tilman          12043 all       steel     
#>  4 bank_a          1000 tilman          12043 all       car       
#>  5 bank_a          1000 tilman          12043 all       tractor   
#>  6 bank_a          1000 tilman          12043 all       steel     
#>  7 bank_a          1000 tilman          12043 all       car       
#>  8 bank_a          1000 tilman          12043 all       tractor   
#>  9 bank_a          1000 tilman          12043 all       steel     
#> 10 bank_a          1000 tilman          12043 all       car       
#> # ℹ 254 more rows
#> # ℹ 17 more variables: co2_footprint_product <dbl>, tilt_sector <chr>,
#> #   tilt_subsector <chr>, isic_4digit <int>, isic_4digit_name <chr>,
#> #   amount_of_distinct_products <int>, equal_weight_finance <dbl>,
#> #   worst_case_finance <int>, best_case_finance <int>, emission_profile <chr>,
#> #   profile_ranking <dbl>, sector_profile <chr>, scenario <chr>, year <int>,
#> #   reduction_targets <dbl>, transition_risk_score <dbl>, …
…
3. Emission profile plots without financial data

without_financial
#> # A tibble: 252 × 35
#>    companies_id country postcode main_activity ep_product activity_uuid_produc…¹
#>    <chr>        <chr>      <int> <chr>         <chr>      <chr>                 
#>  1 %ef%bb%bfma… germany    12043 wholesaler    surface c… a62eb0d6-9120-541c-97…
#>  2 %ef%bb%bfma… germany    12043 wholesaler    surface c… a62eb0d6-9120-541c-97…
#>  3 %ef%bb%bfma… germany    12043 wholesaler    surface c… a62eb0d6-9120-541c-97…
#>  4 %ef%bb%bfma… germany    12043 wholesaler    surface c… a62eb0d6-9120-541c-97…
#>  5 %ef%bb%bfma… germany    12043 wholesaler    surface c… a62eb0d6-9120-541c-97…
#>  6 %ef%bb%bfma… germany    12043 wholesaler    surface c… a62eb0d6-9120-541c-97…
#>  7 %ef%bb%bfma… germany    12043 wholesaler    surface c… a62eb0d6-9120-541c-97…
#>  8 %ef%bb%bfma… germany    12043 wholesaler    surface c… a62eb0d6-9120-541c-97…
#>  9 %ef%bb%bfma… germany    12043 wholesaler    hand tool… 7c082396-1f14-5674-86…
#> 10 %ef%bb%bfma… germany    12043 wholesaler    hand tool… 7c082396-1f14-5674-86…
#> # ℹ 242 more rows
#> # ℹ abbreviated name: ¹​activity_uuid_product_uuid
#> # ℹ 29 more variables: matched_activity_name <chr>,
#> #   matched_reference_product <chr>, unit <chr>, co2e_lower <dbl>,
#> #   co2e_upper <dbl>, emission_profile <chr>, benchmark <chr>,
#> #   profile_ranking <dbl>, tilt_sector <chr>, tilt_subsector <chr>,
#> #   sector_profile <chr>, scenario <chr>, year <int>, …
…
