…
The goal of tiltPlot is to provide plots for the TILT project.

``` r
library(ggplot2)
library(tiltPlot)
```

### 1. Sankey Plot with financial data

``` r
financial
#> # A tibble: 114 × 13
#>    kg_id  amount_total company_name  wz    amount_of_distinct_products
#>    <chr>         <int> <chr>         <chr>                       <int>
#>  1 bank_a         1000 peter peasant A                               1
#>  2 bank_a         1000 peter peasant A                               1
#>  3 bank_a         1000 peter peasant A                               1
#>  4 bank_a         1000 peter peasant A                               1
#>  5 bank_a         1000 peter peasant A                               1
#>  6 bank_a         1000 peter peasant A                               1
#>  7 bank_a         1000 peter         B                               2
#>  8 bank_a         1000 peter         B                               2
#>  9 bank_a         1000 peter         B                               2
#> 10 bank_a         1000 peter         B                               2
#> # ℹ 104 more rows
#> # ℹ 8 more variables: xctr_risk_category <chr>, benchmark <chr>,
#> #   product_name <chr>, tilt_sector <chr>, equal_weight_finance <dbl>,
#> #   worst_case_finance <int>, best_case_finance <int>, main_activity <int>
```
…
Finally, the user can choose different modes to plot the Sankey plot
with financial data available.

``` r
plot_sankey(fin, with_company = FALSE, mode = "best_case_finance")
```

<img src="man/figures/README-unnamed-chunk-6-1.png" width="100%" />

### 2. XCTR plots with financial data

``` r
financial
#> # A tibble: 114 × 13
#>    kg_id  amount_total company_name  wz    amount_of_distinct_products
#>    <chr>         <int> <chr>         <chr>                       <int>
#>  1 bank_a         1000 peter peasant A                               1
#>  2 bank_a         1000 peter peasant A                               1
#>  3 bank_a         1000 peter peasant A                               1
#>  4 bank_a         1000 peter peasant A                               1
#>  5 bank_a         1000 peter peasant A                               1
#>  6 bank_a         1000 peter peasant A                               1
#>  7 bank_a         1000 peter         B                               2
#>  8 bank_a         1000 peter         B                               2
#>  9 bank_a         1000 peter         B                               2
#> 10 bank_a         1000 peter         B                               2
#> # ℹ 104 more rows
#> # ℹ 8 more variables: xctr_risk_category <chr>, benchmark <chr>,
#> #   product_name <chr>, tilt_sector <chr>, equal_weight_finance <dbl>,
#> #   worst_case_finance <int>, best_case_finance <int>, main_activity <int>
```
…
