# hasn't changed

    Code
      nuts_de
    Output
      # A tibble: 8,320 x 2
         geo   postcode
         <chr>    <int>
       1 DEA1D    41363
       2 DEA1E    41366
       3 DEA1E    41748
       4 DEA1E    41749
       5 DEA1E    41751
       6 DEA1E    41747
       7 DEA23    50667
       8 DEA23    50668
       9 DEA23    50670
      10 DEA29    41836
      # i 8,310 more rows
