# hasn't changed

    Code
      without_financial
    Output
      # A tibble: 58 x 5
         company_name  xctr_risk_category benchmark     product_name tilt_sector
         <chr>         <chr>              <chr>         <chr>        <chr>      
       1 peter peasant high               all           car          D          
       2 peter peasant high               unit          car          D          
       3 peter peasant medium             tilt_sec      car          D          
       4 peter peasant medium             unit_tilt_sec car          D          
       5 peter peasant low                isic_sec      car          D          
       6 peter peasant low                unit_isic_sec car          D          
       7 peter         high               all           banana       A          
       8 peter         high               unit          banana       A          
       9 peter         medium             tilt_sec      banana       A          
      10 peter         medium             unit_tilt_sec banana       A          
      # i 48 more rows
