Correspondence table between German postcodes and NUTS level 3 codes — nuts_de • tiltPlot
…
nuts_de

    Format

    An object of class spec_tbl_df (inherits from tbl_df, tbl, data.frame) with 8320 rows and 2 columns.

    Source

    "© European Union - GISCO, 2021, postal code point dataset,
Licence CC-BY-SA 4.0 available at https://ec.europa.eu/eurostat/web/gisco/geodata/reference-data."

    Examples

nuts_de
#> # A tibble: 8,320 × 2
#>    geo   postcode
#>    <chr>    <int>
#>  1 DEA1D    41363
#>  2 DEA1E    41366
#>  3 DEA1E    41748
#>  4 DEA1E    41749
#>  5 DEA1E    41751
#>  6 DEA1E    41747
#>  7 DEA23    50667
#>  8 DEA23    50668
#>  9 DEA23    50670
#> 10 DEA29    41836
#> # ℹ 8,310 more rows
…
